rtl/riscv_sim.vcd
$date
	Tue May 05 22:31:24 2026
$end
$version
	Icarus Verilog
$end
$timescale
	1ps
$end
$scope module riscv_sim $end
$var reg 1 ! clk $end
$var reg 1 " rst $end
$scope module U_RISCV $end
$var wire 1 ! clk $end
$var wire 1 " rst $end
$var wire 1 # zero $end
$var wire 5 $ rs2 [4:0] $end
$var wire 5 % rs1 [4:0] $end
$var wire 5 & rd [4:0] $end
$var wire 32 ' out_ins [31:0] $end
$var wire 7 ( opcode [6:0] $end
$var wire 32 ) in_ins [31:0] $end
$var wire 5 * WR [4:0] $end
$var wire 2 + WDSel [1:0] $end
$var wire 32 , WD [31:0] $end
$var wire 32 - STOR_data_r [31:0] $end
$var wire 2 . RegSel [1:0] $end
$var wire 1 / RFWrite $end
$var wire 32 0 RD2 [31:0] $end
$var wire 32 1 RD1 [31:0] $end
$var wire 32 2 PC_r [31:0] $end
$var wire 1 3 PCWrite $end
$var wire 32 4 PCA4 [31:0] $end
$var wire 32 5 PC [31:0] $end
$var wire 20 6 Offset20 [19:0] $end
$var wire 12 7 Offset12 [11:0] $end
$var wire 32 8 NPC_r [31:0] $end
$var wire 2 9 NPCOp [1:0] $end
$var wire 32 : NPC [31:0] $end
$var wire 32 ; LOAD_data [31:0] $end
$var wire 1 < InsMemRW $end
$var wire 32 = Imm32 [31:0] $end
$var wire 12 > Imm12 [11:0] $end
$var wire 1 ? IRWrite $end
$var wire 7 @ Funct7 [6:0] $end
$var wire 3 A Funct3 [2:0] $end
$var wire 1 B ExtSel $end
$var wire 1 C DMCtrl $end
$var wire 32 D ALU_result_r [31:0] $end
$var wire 32 E ALU_result [31:0] $end
$var wire 32 F ALU_B [31:0] $end
$var wire 32 G ALU_A [31:0] $end
$var wire 2 H ALUSrcB [1:0] $end
$var wire 1 I ALUSrcA $end
$var wire 4 J ALUOp [3:0] $end
$scope module ALU_result_REG $end
$var wire 1 ! clk $end
$var wire 1 " rst $end
$var wire 32 K in_data [31:0] $end
$var reg 32 L out_data [31:0] $end
$upscope $end
$scope module NPC_REG $end
$var wire 1 ! clk $end
$var wire 1 " rst $end
$var wire 32 M in_data [31:0] $end
$var reg 32 N out_data [31:0] $end
$upscope $end
$scope module STOR_data_REG $end
$var wire 1 ! clk $end
$var wire 1 " rst $end
$var wire 32 O in_data [31:0] $end
$var reg 32 P out_data [31:0] $end
$upscope $end
$scope module U_ALU $end
$var wire 1 # zero $end
$var wire 32 Q B [31:0] $end
$var wire 4 R ALUOp [3:0] $end
$var wire 32 S A [31:0] $end
$var reg 32 T ALU_result [31:0] $end
$upscope $end
$scope module U_ControlUnit $end
$var wire 3 U Funct3 [2:0] $end
$var wire 7 V Funct7 [6:0] $end
$var wire 1 ! clk $end
$var wire 7 W opcode [6:0] $end
$var wire 5 X rd [4:0] $end
$var wire 1 " rst $end
$var wire 1 # zero $end
$var parameter 3 Y B_JMP $end
$var parameter 3 Z IRtypeCaculate $end
$var parameter 3 [ JALR_WB $end
$var parameter 3 \ JAL_WB $end
$var parameter 3 ] LOAD_RMEM $end
$var parameter 3 ^ LOAD_WB $end
$var parameter 3 _ ReadIns $end
$var parameter 3 ` STOR_WB $end
$var reg 4 a ALUOp [3:0] $end
$var reg 1 I ALUSrcA $end
$var reg 2 b ALUSrcB [1:0] $end
$var reg 1 C DMCtrl $end
$var reg 1 B ExtSel $end
$var reg 1 ? IRWrite $end
$var reg 1 < InsMemRW $end
$var reg 2 c NPCOp [1:0] $end
$var reg 1 3 PCWrite $end
$var reg 1 / RFWrite $end
$var reg 2 d RegSel [1:0] $end
$var reg 2 e WDSel [1:0] $end
$var reg 5 f WR [4:0] $end
$var reg 3 g fun3_r [2:0] $end
$var reg 3 h next_state [2:0] $end
$var reg 3 i state [2:0] $end
$var reg 1 j zero_r $end
$upscope $end
$scope module U_DM $end
$var wire 10 k Addr [11:2] $end
$var wire 1 C DMCtrl $end
$var wire 32 l WD [31:0] $end
$var wire 1 ! clk $end
$var reg 32 m RD [31:0] $end
$upscope $end
$scope module U_EXT $end
$var wire 1 n ExtSel $end
$var wire 12 o imm_in [11:0] $end
$var reg 32 p imm_out [31:0] $end
$upscope $end
$scope module U_IM $end
$var wire 1 < InsMemRW $end
$var wire 10 q addr [11:2] $end
$var reg 32 r Ins [31:0] $end
$upscope $end
$scope module U_IR $end
$var wire 1 ? IRWrite $end
$var wire 1 ! clk $end
$var wire 32 s in_ins [31:0] $end
$var reg 32 t out_ins [31:0] $end
$upscope $end
$scope module U_MUX_A $end
$var wire 1 I control $end
$var wire 32 u out [31:0] $end
$var wire 32 v Y [31:0] $end
$var wire 32 w X [31:0] $end
$upscope $end
$scope module U_MUX_B $end
$var wire 32 x Y [31:0] $end
$var wire 12 y Z [11:0] $end
$var wire 2 z control [1:0] $end
$var wire 32 { X [31:0] $end
$var reg 32 | out [31:0] $end
$upscope $end
$scope module U_MUX_WB $end
$var wire 32 } X [31:0] $end
$var wire 32 ~ Y [31:0] $end
$var wire 30 !" Z [31:2] $end
$var wire 2 "" control [1:0] $end
$var reg 32 #" out [31:0] $end
$upscope $end
$scope module U_NPC $end
$var wire 2 $" NPCOp [1:0] $end
$var wire 12 %" Offset12 [11:0] $end
$var wire 20 &" Offset20 [19:0] $end
$var wire 32 '" rs [31:0] $end
$var wire 32 (" PC [31:0] $end
$var reg 32 )" NPC [31:0] $end
$var reg 32 *" PCA4 [31:0] $end
$upscope $end
$scope module U_PC $end
$var wire 32 +" NPC [31:0] $end
$var wire 1 3 PCWrite $end
$var wire 1 ! clk $end
$var wire 1 " rst $end
$var reg 32 ," PC [31:0] $end
$upscope $end
$scope module U_PC_REG $end
$var wire 1 ? IRWrite $end
$var wire 1 ! clk $end
$var wire 32 -" in_ins [31:0] $end
$var reg 32 ." out_ins [31:0] $end
$upscope $end
$scope module U_RF $end
$var wire 1 / RFWrite $end
$var wire 5 /" RR1 [4:0] $end
$var wire 5 0" RR2 [4:0] $end
$var wire 32 1" WD [31:0] $end
$var wire 5 2" WR [4:0] $end
$var wire 1 ! clk $end
$var wire 32 3" RD2 [31:0] $end
$var wire 32 4" RD1 [31:0] $end
$upscope $end
$upscope $end
$upscope $end
$enddefinitions $end
$comment Show the parameter values. $end
$dumpall
b10 `
b0 _
b100 ^
b11 ]
b101 \
b110 [
b1 Z
b111 Y
$end
#0
$dumpvars
bx 4"
bx 3"
bx 2"
bx 1"
bx 0"
bx /"
bx ."
bx -"
bx ,"
bx +"
bx *"
bx )"
bx ("
bx '"
bx &"
bx %"
bx $"
bx #"
bx ""
bx !"
bx ~
bx }
bx |
bx {
bx z
b0 y
bx x
bx w
bx v
bx u
bx t
bx s
bx r
bx q
bx p
bx o
1n
bx m
bx l
bx k
xj
bx i
bx h
bx g
bx f
bx e
bx d
bx c
bx b
bx a
bx X
bx W
bx V
bx U
bx T
bx S
bx R
bx Q
bx P
bx O
bx N
bx M
bx L
bx K
bx J
xI
bx H
bx G
bx F
bx E
bx D
xC
xB
bx A
bx @
x?
bx >
bx =
x<
bx ;
bx :
bx 9
bx 8
bx 7
bx 6
bx 5
bx 4
x3
bx 2
bx 1
bx 0
x/
bx .
bx -
bx ,
bx +
bx *
bx )
bx (
bx '
bx &
bx %
bx $
x#
0"
0!
$end
#10000
b111101100000110101110010011 )
b111101100000110101110010011 r
b111101100000110101110010011 s
b0 ,
b0 #"
b0 1"
b0 q
b10000000000100 4
b10000000000100 *"
b10000000000100 :
b10000000000100 )"
b10000000000100 +"
0C
0/
b0 +
b0 e
b0 ""
b0 J
b0 R
b0 a
b0 H
b0 b
b0 z
0I
b1 h
b0 k
b0 !"
b10000000000000 5
b10000000000000 v
b10000000000000 ("
b10000000000000 ,"
b10000000000000 -"
b0 i
b0 *
b0 f
b0 2"
b0 D
b0 L
b0 }
b0 -
b0 P
b0 l
b0 8
b0 N
b0 9
b0 c
b0 $"
1?
1<
13
0j
b0 g
1"
#20000
0"
#25000
b1100111100000000110110000010011 )
b1100111100000000110110000010011 r
b1100111100000000110110000010011 s
0#
b1111011 E
b1111011 K
b1111011 T
b1111011 F
b1111011 Q
b1111011 |
b0 G
b0 S
b0 u
b1111011 =
b1111011 p
b1111011 x
b0 1
b0 w
b0 '"
b0 4"
b1111011 >
b1111011 o
b10000111011 7
b10000111011 %"
bx !"
bx ,
bx #"
bx 1"
bx k
1/
b11 J
b11 R
b11 a
b1 H
b1 b
b1 z
b1 q
b10000000001000 4
b10000000001000 *"
b10000000001000 :
b10000000001000 )"
b10000000001000 +"
b11010000111101 6
b11010000111101 &"
b10111 &
b10111 X
b11011 $
b11011 0"
b0 %
b0 /"
b11 @
b11 V
b110 A
b110 U
b10011 (
b10011 W
bx 8
bx N
bx -
bx P
bx l
bx D
bx L
bx }
b1 i
b10000000000100 5
b10000000000100 v
b10000000000100 ("
b10000000000100 ,"
b10000000000100 -"
b111101100000110101110010011 '
b111101100000110101110010011 t
b10000000000000 2
b10000000000000 M
b10000000000000 ."
1!
#50000
0!
#75000
b100000000110000010010011 )
b100000000110000010010011 r
b100000000110000010010011 s
b11001111000 E
b11001111000 K
b11001111000 T
b11001111000 F
b11001111000 Q
b11001111000 |
b11001111000 =
b11001111000 p
b11001111000 x
b1100111100 7
b1100111100 %"
b11001111000 >
b11001111000 o
b10 q
b10000000001100 4
b10000000001100 *"
b10000000001100 :
b10000000001100 )"
b10000000001100 +"
b1111011 ,
b1111011 #"
b1111011 1"
b11110 k
b100000000000 !"
b11001100111100 6
b11001100111100 &"
b11000 &
b11000 X
b11000 $
b11000 0"
b110011 @
b110011 V
b10000000001000 5
b10000000001000 v
b10000000001000 ("
b10000000001000 ,"
b10000000001000 -"
b10111 *
b10111 f
b10111 2"
b1111011 D
b1111011 L
b1111011 }
b10000000000000 8
b10000000000000 N
b10000000000100 2
b10000000000100 M
b10000000000100 ."
b1100111100000000110110000010011 '
b1100111100000000110110000010011 t
1!
#100000
0!
#125000
b110000000110000100010011 )
b110000000110000100010011 r
b110000000110000100010011 s
b1000 E
b1000 K
b1000 T
b1000 F
b1000 Q
b1000 |
b1000 =
b1000 p
b1000 x
b10000000000 7
b10000000000 %"
b1000 >
b1000 o
b100000000001 !"
b11001111000 ,
b11001111000 #"
b11001111000 1"
b110011110 k
b11 q
b10000000010000 4
b10000000010000 *"
b10000000010000 :
b10000000010000 )"
b10000000010000 +"
b11000000000100 6
b11000000000100 &"
b1 &
b1 X
b1000 $
b1000 0"
b0 @
b0 V
b10000000000100 8
b10000000000100 N
b11001111000 D
b11001111000 L
b11001111000 }
b11000 *
b11000 f
b11000 2"
b10000000001100 5
b10000000001100 v
b10000000001100 ("
b10000000001100 ,"
b10000000001100 -"
b100000000110000010010011 '
b100000000110000010010011 t
b10000000001000 2
b10000000001000 M
b10000000001000 ."
1!
#150000
0!
#175000
b110000110010011 )
b110000110010011 r
b110000110010011 s
b1100 E
b1100 K
b1100 T
b1100 F
b1100 Q
b1100 |
b1100 =
b1100 p
b1100 x
b1 7
b1 %"
b1100 >
b1100 o
b100 q
b10000000010100 4
b10000000010100 *"
b10000000010100 :
b10000000010100 )"
b10000000010100 +"
b1000 ,
b1000 #"
b1000 1"
b10 k
b100000000010 !"
b11000000000110 6
b11000000000110 &"
b10 &
b10 X
b1100 $
b1100 0"
b10000000010000 5
b10000000010000 v
b10000000010000 ("
b10000000010000 ,"
b10000000010000 -"
b1 *
b1 f
b1 2"
b1000 D
b1000 L
b1000 }
b10000000001000 8
b10000000001000 N
b10000000001100 2
b10000000001100 M
b10000000001100 ."
b110000000110000100010011 '
b110000000110000100010011 t
1!
#200000
0!
#225000
b100010000010110110011 )
b100010000010110110011 r
b100010000010110110011 s
1#
b0 E
b0 K
b0 T
b0 F
b0 Q
b0 |
b0 =
b0 p
b0 x
b10000000001 7
b10000000001 %"
b0 >
b0 o
b0 0
b0 O
b0 {
b0 3"
b100000000011 !"
b1100 ,
b1100 #"
b1100 1"
b11 k
b101 q
b10000000011000 4
b10000000011000 *"
b10000000011000 :
b10000000011000 )"
b10000000011000 +"
b11000000000000 6
b11000000000000 &"
b11 &
b11 X
b0 $
b0 0"
b10000000001100 8
b10000000001100 N
b1100 D
b1100 L
b1100 }
b10 *
b10 f
b10 2"
b10000000010100 5
b10000000010100 v
b10000000010100 ("
b10000000010100 ,"
b10000000010100 -"
b110000110010011 '
b110000110010011 t
b10000000010000 2
b10000000010000 M
b10000000010000 ."
1!
#250000
0!
#275000
b1000000000100010000011000110011 )
b1000000000100010000011000110011 r
b1000000000100010000011000110011 s
b1 =
b1 p
b1 x
b1100 G
b1100 S
b1100 u
0#
b10100 E
b10100 K
b10100 T
b1000 F
b1000 Q
b1000 |
b10000000101 7
b10000000101 %"
b1 >
b1 o
b1000 0
b1000 O
b1000 {
b1000 3"
b1100 1
b1100 w
b1100 '"
b1100 4"
b0 J
b0 R
b0 a
b0 H
b0 b
b0 z
b110 q
b10000000011100 4
b10000000011100 *"
b10000000011100 :
b10000000011100 )"
b10000000011100 +"
b0 ,
b0 #"
b0 1"
b0 k
b100000000100 !"
b1000010000000000 6
b1000010000000000 &"
b1011 &
b1011 X
b1 $
b1 0"
b10 %
b10 /"
b0 A
b0 U
b110011 (
b110011 W
b10000000011000 5
b10000000011000 v
b10000000011000 ("
b10000000011000 ,"
b10000000011000 -"
b11 *
b11 f
b11 2"
b0 D
b0 L
b0 }
b0 -
b0 P
b0 l
b10000000010000 8
b10000000010000 N
b10000000010100 2
b10000000010100 M
b10000000010100 ."
b100010000010110110011 '
b100010000010110110011 t
1!
#300000
0!
#325000
b100010000011010010011 )
b100010000011010010011 r
b100010000011010010011 s
b10000000001 =
b10000000001 p
b10000000001 x
b100 E
b100 K
b100 T
b1000000110 7
b1000000110 %"
b10000000001 >
b10000000001 o
b1 J
b1 R
b1 a
b100000000101 !"
b10100 ,
b10100 #"
b10100 1"
b101 k
b111 q
b10000000100000 4
b10000000100000 *"
b10000000100000 :
b10000000100000 )"
b10000000100000 +"
b1000011000000000 6
b1000011000000000 &"
b1100 &
b1100 X
b100000 @
b100000 V
b10000000010100 8
b10000000010100 N
b1000 -
b1000 P
b1000 l
b10100 D
b10100 L
b10100 }
b1011 *
b1011 f
b1011 2"
b10000000011100 5
b10000000011100 v
b10000000011100 ("
b10000000011100 ,"
b10000000011100 -"
b1000000000100010000011000110011 '
b1000000000100010000011000110011 t
b10000000011000 2
b10000000011000 M
b10000000011000 ."
1!
#350000
0!
#375000
b1100010110011100110011 )
b1100010110011100110011 r
b1100010110011100110011 s
b1 =
b1 p
b1 x
b1101 E
b1101 K
b1101 T
b1 F
b1 Q
b1 |
b10000000110 7
b10000000110 %"
b1 >
b1 o
b0 J
b0 R
b0 a
b1 H
b1 b
b1 z
b1000 q
b10000000100100 4
b10000000100100 *"
b10000000100100 :
b10000000100100 )"
b10000000100100 +"
b100 ,
b100 #"
b100 1"
b1 k
b100000000110 !"
b1000010000000000 6
b1000010000000000 &"
b1101 &
b1101 X
b0 @
b0 V
b10011 (
b10011 W
b10000000100000 5
b10000000100000 v
b10000000100000 ("
b10000000100000 ,"
b10000000100000 -"
b1100 *
b1100 f
b1100 2"
b100 D
b100 L
b100 }
b10000000011000 8
b10000000011000 N
b10000000011100 2
b10000000011100 M
b10000000011100 ."
b100010000011010010011 '
b100010000011010010011 t
1!
#400000
0!
#425000
b1000001111011110110011 )
b1000001111011110110011 r
b1000001111011110110011 s
b11 =
b11 p
b11 x
b1100 E
b1100 K
b1100 T
b0 F
b0 Q
b0 |
b111 7
b111 %"
b11 >
b11 o
b0 0
b0 O
b0 {
b0 3"
b11 J
b11 R
b11 a
b0 H
b0 b
b0 z
b100000000111 !"
b1101 ,
b1101 #"
b1101 1"
b11 k
b1001 q
b10000000101000 4
b10000000101000 *"
b10000000101000 :
b10000000101000 )"
b10000000101000 +"
b1011010000000001 6
b1011010000000001 &"
b1110 &
b1110 X
b11 $
b11 0"
b110 A
b110 U
b110011 (
b110011 W
b10000000011100 8
b10000000011100 N
b1101 D
b1101 L
b1101 }
b1101 *
b1101 f
b1101 2"
b10000000100100 5
b10000000100100 v
b10000000100100 ("
b10000000100100 ,"
b10000000100100 -"
b1100010110011100110011 '
b1100010110011100110011 t
b10000000100000 2
b10000000100000 M
b10000000100000 ."
1!
#450000
0!
#475000
b100010100100110110011 )
b100010100100110110011 r
b100010100100110110011 s
b10 =
b10 p
b10 x
b1100 F
b1100 Q
b1100 |
b1000 G
b1000 S
b1000 u
0#
b1000 E
b1000 K
b1000 T
b10000000111 7
b10000000111 %"
b10 >
b10 o
b1100 0
b1100 O
b1100 {
b1100 3"
b1000 1
b1000 w
b1000 '"
b1000 4"
b10 J
b10 R
b10 a
b1010 q
b10000000101100 4
b10000000101100 *"
b10000000101100 :
b10000000101100 )"
b10000000101100 +"
b1100 ,
b1100 #"
b1100 1"
b100000001000 !"
b111100000000001 6
b111100000000001 &"
b1111 &
b1111 X
b10 $
b10 0"
b1 %
b1 /"
b111 A
b111 U
b10000000101000 5
b10000000101000 v
b10000000101000 ("
b10000000101000 ,"
b10000000101000 -"
b1110 *
b1110 f
b1110 2"
b1100 D
b1100 L
b1100 }
b0 -
b0 P
b0 l
b10000000100000 8
b10000000100000 N
b10000000100100 2
b10000000100100 M
b10000000100100 ."
b1000001111011110110011 '
b1000001111011110110011 t
1!
#500000
0!
#525000
b10000000110001000010011 )
b10000000110001000010011 r
b10000000110001000010011 s
b1 =
b1 p
b1 x
b1000 F
b1000 Q
b1000 |
b1100 G
b1100 S
b1100 u
b100 E
b100 K
b100 T
b10000001001 7
b10000001001 %"
b1 >
b1 o
b1000 0
b1000 O
b1000 {
b1000 3"
b1100 1
b1100 w
b1100 '"
b1100 4"
b100 J
b100 R
b100 a
b100000001001 !"
b1000 ,
b1000 #"
b1000 1"
b10 k
b1011 q
b10000000110000 4
b10000000110000 *"
b10000000110000 :
b10000000110000 )"
b10000000110000 +"
b1010010000000000 6
b1010010000000000 &"
b10011 &
b10011 X
b1 $
b1 0"
b10 %
b10 /"
b100 A
b100 U
b10000000100100 8
b10000000100100 N
b1100 -
b1100 P
b1100 l
b1000 D
b1000 L
b1000 }
b1111 *
b1111 f
b1111 2"
b10000000101100 5
b10000000101100 v
b10000000101100 ("
b10000000101100 ,"
b10000000101100 -"
b100010100100110110011 '
b100010100100110110011 t
b10000000101000 2
b10000000101000 M
b10000000101000 ."
1!
#550000
0!
#575000
b10000010001001110110011 )
b10000010001001110110011 r
b10000010001001110110011 s
b100 =
b100 p
b100 x
b0 G
b0 S
b0 u
b100 E
b100 K
b100 T
b100 F
b100 Q
b100 |
b10 7
b10 %"
b100 >
b100 o
bx 0
bx O
bx {
bx 3"
b0 1
b0 w
b0 '"
b0 4"
b11 J
b11 R
b11 a
b1 H
b1 b
b1 z
b1100 q
b10000000110100 4
b10000000110100 *"
b10000000110100 :
b10000000110100 )"
b10000000110100 +"
b100 ,
b100 #"
b100 1"
b1 k
b100000001010 !"
b11000000000010 6
b11000000000010 &"
b100 &
b100 X
b100 $
b100 0"
b0 %
b0 /"
b110 A
b110 U
b10011 (
b10011 W
b10000000110000 5
b10000000110000 v
b10000000110000 ("
b10000000110000 ,"
b10000000110000 -"
b10011 *
b10011 f
b10011 2"
b100 D
b100 L
b100 }
b1000 -
b1000 P
b1000 l
b10000000101000 8
b10000000101000 N
b10000000101100 2
b10000000101100 M
b10000000101100 ."
b10000000110001000010011 '
b10000000110001000010011 t
1!
#600000
0!
#625000
b1000000000000110011110010011 )
b1000000000000110011110010011 r
b1000000000000110011110010011 s
b1100 G
b1100 S
b1100 u
0#
b11000000 E
b11000000 K
b11000000 T
b100 0
b100 O
b100 {
b100 3"
b10000000011 7
b10000000011 %"
b1100 1
b1100 w
b1100 '"
b1100 4"
b1000 J
b1000 R
b1000 a
b0 H
b0 b
b0 z
b100000001011 !"
b1101 q
b10000000111000 4
b10000000111000 *"
b10000000111000 :
b10000000111000 )"
b10000000111000 +"
b1000100000000010 6
b1000100000000010 &"
b111 &
b111 X
b10 %
b10 /"
b1 A
b1 U
b110011 (
b110011 W
b10000000101100 8
b10000000101100 N
bx -
bx P
bx l
b100 *
b100 f
b100 2"
b10000000110100 5
b10000000110100 v
b10000000110100 ("
b10000000110100 ,"
b10000000110100 -"
b10000010001001110110011 '
b10000010001001110110011 t
b10000000110000 2
b10000000110000 M
b10000000110000 ."
1!
#650000
0!
#675000
b10001111101001100110011 )
b10001111101001100110011 r
b10001111101001100110011 s
b10000000 F
b10000000 Q
b10000000 |
b10000000 =
b10000000 p
b10000000 x
b0 G
b0 S
b0 u
b10000000 E
b10000000 K
b10000000 T
b0 0
b0 O
b0 {
b0 3"
b10001000111 7
b10001000111 %"
b10000000 >
b10000000 o
b0 1
b0 w
b0 '"
b0 4"
b11 J
b11 R
b11 a
b1 H
b1 b
b1 z
b1110 q
b10000000111100 4
b10000000111100 *"
b10000000111100 :
b10000000111100 )"
b10000000111100 +"
b11000000 ,
b11000000 #"
b11000000 1"
b110000 k
b100000001100 !"
b11000001000000 6
b11000001000000 &"
b1111 &
b1111 X
b0 $
b0 0"
b0 %
b0 /"
b100 @
b100 V
b110 A
b110 U
b10011 (
b10011 W
b10000000111000 5
b10000000111000 v
b10000000111000 ("
b10000000111000 ,"
b10000000111000 -"
b111 *
b111 f
b111 2"
b11000000 D
b11000000 L
b11000000 }
b100 -
b100 P
b100 l
b10000000110000 8
b10000000110000 N
b10000000110100 2
b10000000110100 M
b10000000110100 ."
b1000000000000110011110010011 '
b1000000000000110011110010011 t
1!
#700000
0!
#725000
b1000000010001111101001010110011 )
b1000000010001111101001010110011 r
b1000000010001111101001010110011 s
b100 =
b100 p
b100 x
b10000000 G
b10000000 S
b10000000 u
0#
b1000 E
b1000 K
b1000 T
b100 F
b100 Q
b100 |
b11 7
b11 %"
b100 >
b100 o
b100 0
b100 O
b100 {
b100 3"
b10000000 1
b10000000 w
b10000000 '"
b10000000 4"
b1001 J
b1001 R
b1001 a
b0 H
b0 b
b0 z
b100000001101 !"
b10000000 ,
b10000000 #"
b10000000 1"
b100000 k
b1111 q
b10000001000000 4
b10000001000000 *"
b10000001000000 :
b10000001000000 )"
b10000001000000 +"
b111110100000000010 6
b111110100000000010 &"
b110 &
b110 X
b100 $
b100 0"
b1111 %
b1111 /"
b0 @
b0 V
b101 A
b101 U
b110011 (
b110011 W
b10000000110100 8
b10000000110100 N
b0 -
b0 P
b0 l
b10000000 D
b10000000 L
b10000000 }
b1111 *
b1111 f
b1111 2"
b10000000111100 5
b10000000111100 v
b10000000111100 ("
b10000000111100 ,"
b10000000111100 -"
b10001111101001100110011 '
b10001111101001100110011 t
b10000000111000 2
b10000000111000 M
b10000000111000 ."
1!
#750000
0!
#775000
b10000000110001000010011 )
b10000000110001000010011 r
b10000000110001000010011 s
b10000000100 =
b10000000100 p
b10000000100 x
b11000000010 7
b11000000010 %"
b10000000100 >
b10000000100 o
b111 J
b111 R
b111 a
b10000 q
b10000001000100 4
b10000001000100 *"
b10000001000100 :
b10000001000100 )"
b10000001000100 +"
b1000 ,
b1000 #"
b1000 1"
b10 k
b100000001110 !"
b111110101000000010 6
b111110101000000010 &"
b101 &
b101 X
b100000 @
b100000 V
b10000001000000 5
b10000001000000 v
b10000001000000 ("
b10000001000000 ,"
b10000001000000 -"
b110 *
b110 f
b110 2"
b1000 D
b1000 L
b1000 }
b100 -
b100 P
b100 l
b10000000111000 8
b10000000111000 N
b10000000111100 2
b10000000111100 M
b10000000111100 ."
b1000000010001111101001010110011 '
b1000000010001111101001010110011 t
1!
#800000
0!
#825000
b11111110010000001010111000100011 )
b11111110010000001010111000100011 r
b11111110010000001010111000100011 s
b100 =
b100 p
b100 x
b0 G
b0 S
b0 u
b100 E
b100 K
b100 T
b100 F
b100 Q
b100 |
b10 7
b10 %"
b100 >
b100 o
b0 1
b0 w
b0 '"
b0 4"
b11 J
b11 R
b11 a
b1 H
b1 b
b1 z
b100000001111 !"
b10001 q
b10000001001000 4
b10000001001000 *"
b10000001001000 :
b10000001001000 )"
b10000001001000 +"
b11000000000010 6
b11000000000010 &"
b100 &
b100 X
b0 %
b0 /"
b0 @
b0 V
b110 A
b110 U
b10011 (
b10011 W
b10000000111100 8
b10000000111100 N
b101 *
b101 f
b101 2"
b10000001000100 5
b10000001000100 v
b10000001000100 ("
b10000001000100 ,"
b10000001000100 -"
b10000000110001000010011 '
b10000000110001000010011 t
b10000001000000 2
b10000001000000 M
b10000001000000 ."
1!
#850000
0!
#875000
b1000000010000000100011 )
b1000000010000000100011 r
b1000000010000000100011 s
b11111111111111111111111111111100 F
b11111111111111111111111111111100 Q
b11111111111111111111111111111100 |
b1000 G
b1000 S
b1000 u
b11111111111111111111111111111100 =
b11111111111111111111111111111100 p
b11111111111111111111111111111100 x
0?
0<
03
b101111111110 7
b101111111110 %"
b1000 1
b1000 w
b1000 '"
b1000 4"
b111111111100 >
b111111111100 o
b0 J
b0 R
b0 a
b10 h
b10010 q
b10000001001100 4
b10000001001100 *"
b10000001001100 :
b10000001001100 )"
b10000001001100 +"
b100 ,
b100 #"
b100 1"
b1 k
b100000010000 !"
b10000101001111110010 6
b10000101001111110010 &"
b11100 &
b11100 X
b1 %
b1 /"
b1111111 @
b1111111 V
b10 A
b10 U
b100011 (
b100011 W
b10000001001000 5
b10000001001000 v
b10000001001000 ("
b10000001001000 ,"
b10000001001000 -"
b100 *
b100 f
b100 2"
b100 D
b100 L
b100 }
b10000001000000 8
b10000001000000 N
b10000001000100 2
b10000001000100 M
b10000001000100 ."
b11111110010000001010111000100011 '
b11111110010000001010111000100011 t
1!
#900000
0!
#925000
b0 0
b0 O
b0 {
b0 3"
b1000 E
b1000 K
b1000 T
b0 ,
b0 #"
b0 1"
b0 F
b0 Q
b0 |
b100000010001 !"
1C
0/
b11 +
b11 e
b11 ""
b0 H
b0 b
b0 z
b0 h
b10000001000100 8
b10000001000100 N
b10 i
1!
#950000
0!
#975000
b10000 E
b10000 K
b10000 T
b1000 F
b1000 Q
b1000 |
b1000 0
b1000 O
b1000 {
b1000 3"
b1000 ,
b1000 #"
b1000 1"
0C
b0 +
b0 e
b0 ""
1?
1<
13
b1 h
b10 k
b0 i
b1000 D
b1000 L
b1000 }
b0 -
b0 P
b0 l
1!
#1000000
0!
#1025000
1#
b0 E
b0 K
b0 T
b0 =
b0 p
b0 x
b0 G
b0 S
b0 u
b1100 0
b1100 O
b1100 {
b1100 3"
b0 F
b0 Q
b0 |
b0 7
b0 %"
b0 >
b0 o
b0 1
b0 w
b0 '"
b0 4"
b10000 ,
b10000 #"
b10000 1"
b100 k
1/
b1 H
b1 b
b1 z
0?
0<
03
b10 h
b10011 q
b10000001010000 4
b10000001010000 *"
b10000001010000 :
b10000001010000 )"
b10000001010000 +"
b1000000000001 6
b1000000000001 &"
b0 &
b0 X
b10 $
b10 0"
b0 %
b0 /"
b0 @
b0 V
b1000 -
b1000 P
b1000 l
b10000 D
b10000 L
b10000 }
b0 *
b0 f
b0 2"
b1 i
b10000001001100 5
b10000001001100 v
b10000001001100 ("
b10000001001100 ,"
b10000001001100 -"
b1000000010000000100011 '
b1000000010000000100011 t
b10000001001000 2
b10000001001000 M
b10000001001000 ."
1!
#1050000
0!
#1075000
0#
b1100 E
b1100 K
b1100 T
b1100 F
b1100 Q
b1100 |
1C
0/
b11 +
b11 e
b11 ""
b0 H
b0 b
b0 z
b0 h
b0 ,
b0 #"
b0 1"
b0 k
b100000010010 !"
b10 i
b0 D
b0 L
b0 }
b1100 -
b1100 P
b1100 l
b10000001001000 8
b10000001001000 N
1!
#1100000
0!
#1125000
b1100000010001000100011 )
b1100000010001000100011 r
b1100000010001000100011 s
b1100 ,
b1100 #"
b1100 1"
b11 k
0C
b0 +
b0 e
b0 ""
1?
1<
13
b1 h
b1100 D
b1100 L
b1100 }
b0 i
1!
#1150000
0!
#1175000
0#
b100 E
b100 K
b100 T
b100 =
b100 p
b100 x
b100 F
b100 Q
b100 |
b10 7
b10 %"
b100 >
b100 o
b0 0
b0 O
b0 {
b0 3"
b10100 q
b10000001010100 4
b10000001010100 *"
b10000001010100 :
b10000001010100 )"
b10000001010100 +"
1/
b1 H
b1 b
b1 z
0?
0<
03
b10 h
b1010000000001 6
b1010000000001 &"
b100 &
b100 X
b11 $
b11 0"
b10000001010000 5
b10000001010000 v
b10000001010000 ("
b10000001010000 ,"
b10000001010000 -"
b1 i
b10000001001100 2
b10000001001100 M
b10000001001100 ."
b1100000010001000100011 '
b1100000010001000100011 t
1!
#1200000
0!
#1225000
1#
b0 E
b0 K
b0 T
b0 F
b0 Q
b0 |
b100000010011 !"
b0 ,
b0 #"
b0 1"
b1 k
1C
0/
b11 +
b11 e
b11 ""
b0 H
b0 b
b0 z
b0 h
b10000001001100 8
b10000001001100 N
b0 -
b0 P
b0 l
b100 D
b100 L
b100 }
b10 i
1!
#1250000
0!
#1275000
b11111111100000001010001010000011 )
b11111111100000001010001010000011 r
b11111111100000001010001010000011 s
0C
b0 +
b0 e
b0 ""
1?
1<
13
b1 h
b0 k
b0 i
b0 D
b0 L
b0 }
1!
#1300000
0!
